{"items":[{"acknowledgements":null,"authors":[{"affiliation":"Département de pathologie et biologie cellulaire, Université de Montréal, Montréal, Québec, Canada","image":{"placeholder":"https://www.protocols.io/img/avatars/001.png","source":"https://www.protocols.io/img/avatars/001.png"},"link":null,"name":"Ahmed M. Fahmy","username":"m4vle1z1q1v4ule1"},{"affiliation":"Département de pathologie et biologie cellulaire, Université de Montréal, Montréal, Québec, Canada","image":{"placeholder":"https://www.protocols.io/img/avatars/001.png","source":"https://www.protocols.io/img/avatars/001.png"},"link":null,"name":"Ali  Ahmadi","username":""},{"affiliation":"Institute for Research in Immunology and Cancer (IRIC), Université de Montréal, Montréal, Québec, Canada","image":{"placeholder":"https://www.protocols.io/img/avatars/001.png","source":"https://www.protocols.io/img/avatars/001.png"},"link":null,"name":"Joel Lanoix","username":"joel-lanoix"},{"affiliation":"Département de neuroscience, Université de Montréal, Montréal, Québec, Canada","image":{"placeholder":"https://www.protocols.io/img/avatars/001.png","source":"https://www.protocols.io/img/avatars/001.png"},"link":null,"name":"Moustafa  Elemeery","username":""},{"affiliation":"Département de pathologie et biologie cellulaire, Université de Montréal, Montréal, Québec, Canada","image":{"placeholder":"https://www.protocols.io/img/avatars/001.png","source":"https://www.protocols.io/img/avatars/001.png"},"link":null,"name":"Benoit  Barrette","username":""},{"affiliation":"Département de pathologie et biologie cellulaire, Université de Montréal, Montréal, Québec, Canada","image":{"placeholder":"https://www.protocols.io/img/avatars/001.png","source":"https://www.protocols.io/img/avatars/001.png"},"link":null,"name":"Michel  Desjardins","username":""}],"before_start":"","created_on":1777031705,"creator":{"affiliation":"Université de Montréal","image":{"placeholder":"https://files.protocols.io/thumbnails/external/photo-1F98DCBF5B2B11EFA2EF0A58A9FEAC02.jpg/thumbnail-w100xh100.jpg","source":"https://files.protocols.io/external/photo-1F98DCBF5B2B11EFA2EF0A58A9FEAC02.jpg"},"link":null,"name":"Lilia Rodriguez","username":"m4ule152w1u4vle1"},"description":"{\"blocks\":[{\"key\":\"dgl8j\",\"text\":\"A growing body of evidence supports the contribution of the long-lasting adaptive immune system in Parkinson’s disease (PD). We showed that the PD-associated protein PINK1 negatively regulates the presentation of mitochondrial antigens (MitAP) on MHC-I molecules. In vivo evidence indicated that MitAP activation in mice, in the absence of PINK1, led to cytotoxic CD8+ T cell stimulation and severe motor impairments, reversible by L-DOPA. We show here that following TLR4 activation, MitAP is engaged through a pathway involving cGAS-STING, which acts as a rheostat to dampen the unfolded protein response (UPR). Without STING, the stress response is amplified, leading to a translational attenuation that inhibits the expression of XBP1s, a transcription factor required for MitAP. STING activity also regulates the repertoire of peptides displayed at the cell surface during inflammation, highlighting a potential role in immunosurveillance. These findings establish STING and the UPR as key immune regulators targetable for therapeutic intervention during autoimmune diseases and PD.\",\"type\":\"unstyled\",\"depth\":0,\"inlineStyleRanges\":[{\"style\":\"italic\",\"offset\":264,\"length\":7},{\"style\":\"sup\",\"offset\":367,\"length\":1}],\"entityRanges\":[],\"data\":{}}],\"entityMap\":{}}","doi":"dx.doi.org/10.17504/protocols.io.5qpvoezxdl4o/v1","funders":[{"funder_name":"Aligning Science Across Parkinson’s","grant_id":"ASAP 000525"}],"guid":"C2FF5BA0E8F84B2B83BC02104F32D1E3","guidelines":"","id":315664,"image":{"placeholder":"https://www.protocols.io/img/default_protocol.png","source":"https://www.protocols.io/img/default_protocol.png"},"link":"","materials":[],"materials_text":"","peer_reviewed":false,"public":true,"published_on":1777045941,"stats":{"is_voted":false,"number_of_accessible_forks":0,"number_of_bookmarked_comments":0,"number_of_bookmarks":0,"number_of_collections":0,"number_of_comments":0,"number_of_equipments":0,"number_of_exports":0,"number_of_forks":{"private":0,"public":0},"number_of_protocol_comments":0,"number_of_reagents":0,"number_of_runs":0,"number_of_steps":0,"number_of_steps_comments":0,"number_of_views":5,"number_of_votes":0},"title":"Protocols for \u0026#34;STING dampens the unfolded protein response to enable mitochondrial antigen presentation on MHC-I during inflammation\u0026#34;","title_html":"\u003cp\u003eProtocols for \u0026quot;STING dampens the unfolded protein response to enable mitochondrial antigen presentation on MHC-I during inflammation\u0026quot;\u003c/p\u003e","units":[{"can_manage":0,"id":1,"name":"µL","read_only":0,"type_id":3},{"can_manage":0,"id":2,"name":"mL","read_only":0,"type_id":3},{"can_manage":0,"id":3,"name":"L","read_only":0,"type_id":3},{"can_manage":0,"id":4,"name":"µg","read_only":0,"type_id":3},{"can_manage":0,"id":5,"name":"mg","read_only":0,"type_id":3},{"can_manage":0,"id":6,"name":"g","read_only":0,"type_id":3},{"can_manage":0,"id":7,"name":"kg","read_only":0,"type_id":3},{"can_manage":0,"id":8,"name":"ng","read_only":0,"type_id":3},{"can_manage":0,"id":9,"name":"Hz","read_only":0,"type_id":3},{"can_manage":0,"id":10,"name":"°C","read_only":0,"type_id":24},{"can_manage":0,"id":11,"name":"°К","read_only":0,"type_id":24},{"can_manage":0,"id":12,"name":"°F","read_only":0,"type_id":24},{"can_manage":0,"id":13,"name":"Mass Percent","read_only":0,"type_id":25},{"can_manage":0,"id":14,"name":"% volume","read_only":0,"type_id":25},{"can_manage":0,"id":15,"name":"Mass / % volume","read_only":0,"type_id":25},{"can_manage":0,"id":16,"name":"Parts per Million (PPM)","read_only":0,"type_id":25},{"can_manage":0,"id":17,"name":"Parts per Billion (PPB)","read_only":0,"type_id":25},{"can_manage":0,"id":18,"name":"Parts per Trillion (PPT)","read_only":0,"type_id":25},{"can_manage":0,"id":19,"name":"Mole Fraction","read_only":0,"type_id":25},{"can_manage":0,"id":20,"name":"Mole Percent","read_only":0,"type_id":25},{"can_manage":0,"id":21,"name":"Molarity (M)","read_only":1,"type_id":25},{"can_manage":0,"id":22,"name":"Molarity (M)","read_only":0,"type_id":25},{"can_manage":0,"id":23,"name":"Genome copies per ml","read_only":0,"type_id":25},{"can_manage":0,"id":24,"name":"μV","read_only":0,"type_id":3},{"can_manage":0,"id":25,"name":"ms","read_only":0,"type_id":3},{"can_manage":0,"id":26,"name":"pg","read_only":0,"type_id":3},{"can_manage":0,"id":27,"name":"Molarity dilutions","read_only":0,"type_id":25},{"can_manage":0,"id":28,"name":"millimolar (mM)","read_only":0,"type_id":25},{"can_manage":0,"id":29,"name":"micromolar (µM)","read_only":0,"type_id":25},{"can_manage":0,"id":30,"name":"nanomolar (nM)","read_only":0,"type_id":25},{"can_manage":0,"id":31,"name":"picomolar (pM)","read_only":0,"type_id":25},{"can_manage":0,"id":32,"name":"Room temperature","read_only":0,"type_id":24},{"can_manage":0,"id":33,"name":"rpm","read_only":0,"type_id":30},{"can_manage":0,"id":34,"name":"x g","read_only":0,"type_id":30},{"can_manage":0,"id":165,"name":"On ice","read_only":0,"type_id":24},{"can_manage":0,"id":200,"name":"cm","read_only":0,"type_id":32},{"can_manage":0,"id":201,"name":"mm","read_only":0,"type_id":32},{"can_manage":0,"id":202,"name":"µm","read_only":0,"type_id":32},{"can_manage":0,"id":203,"name":"nm","read_only":0,"type_id":32},{"can_manage":0,"id":204,"name":"mg/mL","read_only":0,"type_id":25},{"can_manage":0,"id":205,"name":"µg/µL","read_only":0,"type_id":25},{"can_manage":0,"id":206,"name":"% (v/v)","read_only":0,"type_id":25},{"can_manage":0,"id":207,"name":"V","read_only":0,"type_id":3},{"can_manage":0,"id":208,"name":"Undetermined","read_only":0,"type_id":0},{"can_manage":0,"id":1324,"name":"rcf","read_only":0,"type_id":30},{"can_manage":0,"id":1359,"name":"Bar","read_only":0,"type_id":35},{"can_manage":0,"id":1360,"name":"Pa","read_only":0,"type_id":35}],"uri":"protocols-for-34-sting-dampens-the-unfolded-protei-jyhqcpt5x","url":"https://www.protocols.io/view/protocols-for-34-sting-dampens-the-unfolded-protei-jyhqcpt5x","version_id":0,"versions":[{"doi":"dx.doi.org/10.17504/protocols.io.5qpvoezxdl4o/v1","guid":"","id":315664,"image":{"placeholder":"https://www.protocols.io/img/default_protocol.png","source":"https://www.protocols.io/img/default_protocol.png"},"published_on":1777045941,"title":"Protocols for \u0026#34;STING dampens the unfolded protein response to enable mitochondrial antigen presentation on MHC-I during inflammation\u0026#34;","title_html":"\u003cp\u003eProtocols for \u0026quot;STING dampens the unfolded protein response to enable mitochondrial antigen presentation on MHC-I during inflammation\u0026quot;\u003c/p\u003e","uri":"protocols-for-34-sting-dampens-the-unfolded-protei-jyhqcpt5x","version_id":0}],"warning":""}],"pagination":{"changed_on":null,"current_page":1,"first":0,"last":3278,"next_page":"https://www.protocols.io/api/v3/protocols?filter=public\u0026key=PCR\u0026page_id=2\u0026page_size=1","page_size":1,"prev_page":null,"total_pages":3279,"total_results":3279},"status_code":0}